{
  "db": {
    "name": "db",
    "connector": "mongodb",
    "url": "",
    "host":"localhost",
    "port": 27017,
    "user":"",
    "password":"",
    "database":"db1",
    "useNewUrlParser": true
  },
  "emailDs": {
    "name": "emailDs",
    "connector": "mail",
    "transports": [
      {
        "type": "SMTP",
        "host": "smtp.gmail.com",
        "secure": true,
        "port": 465,
        "tls": {
          "rejectUnauthorized": false
        },
        "auth": {
          "user": "rachanashenoy12@gmail.com",
          "pass": "yourpassword"
        }
      }
    ]
  }
}
